<?xml version="1.0" encoding="UTF-8" standalone="no"?>
<!DOCTYPE svg PUBLIC "-//W3C//DTD SVG 1.1//EN" "http://www.w3.org/Graphics/SVG/1.1/DTD/svg11.dtd">
<svg width="100%" height="100%" viewBox="0 0 52 52" version="1.1" xmlns="http://www.w3.org/2000/svg" xmlns:xlink="http://www.w3.org/1999/xlink" xml:space="preserve" xmlns:serif="http://www.serif.com/" style="fill-rule:evenodd;clip-rule:evenodd;stroke-linecap:round;stroke-linejoin:round;stroke-miterlimit:1.5;">
    <g transform="matrix(1,0,0,1,-875.958,-345.958)">
        <g>
            <g transform="matrix(1.02083,0,0,1.02083,45.0208,-8.25)">
                <circle cx="839" cy="372" r="24" style="fill:none;stroke:rgb(74,144,226);stroke-width:2.04px;"/>
            </g>
            <g transform="matrix(0.889,0,0,0.75254,100.067,86.0705)">
                <g transform="matrix(0.764706,0,0,0.875,212.118,47.9212)">
                    <path d="M893,378L901.5,386L910,378" style="fill:none;stroke:rgb(74,144,226);stroke-width:3.11px;"/>
                </g>
                <g transform="matrix(0.874891,0,0,1.1811,117.161,-62)">
                    <path d="M883,381L883,386L910,386L910,381" style="fill:none;stroke:rgb(74,144,226);stroke-width:2.49px;"/>
                </g>
                <g transform="matrix(1,0,0,0.84,0,61.4312)">
                    <path d="M901.5,361L901.5,386" style="fill:none;stroke:rgb(74,144,226);stroke-width:2.7px;"/>
                </g>
            </g>
        </g>
    </g>
</svg>
