<svg xmlns="http://www.w3.org/2000/svg" width="28" height="29" viewBox="0 0 28 29">
  <path fill="#FFF" fill-rule="evenodd" d="M806,144.5 C805.052079,144.5 804.095057,144.736977 803.128906,145.210938 C802.162756,145.684898 801.378909,146.263668 800.777344,146.947266 C800.175778,147.630863 799.875,148.273434 799.875,148.875 L799.875,153.25 C799.875,154.252609 800.10742,155.396478 800.572266,156.681641 C801.037112,157.966803 801.688798,158.946611 802.527344,159.621094 C803.037763,160.022137 803.251954,160.546221 803.169922,161.193359 C803.08789,161.840498 802.755211,162.30078 802.171875,162.574219 L794.488281,166.210938 C793.996091,166.429689 793.75,166.766925 793.75,167.222656 L793.75,169 L818.222656,168.972656 L818.222656,167.277344 C818.222656,167.149739 818.213542,167.031251 818.195312,166.921875 C818.177083,166.812499 818.145183,166.721355 818.099609,166.648438 C818.054036,166.57552 818.008464,166.516276 817.962891,166.470703 C817.917317,166.42513 817.867188,166.384115 817.8125,166.347656 C817.757812,166.311198 817.71224,166.283854 817.675781,166.265625 C817.639323,166.247396 817.602865,166.233724 817.566406,166.224609 L817.511719,166.210938 L809.882812,162.601562 C809.299476,162.328124 808.96224,161.863285 808.871094,161.207031 C808.852864,161.006509 808.866536,160.810548 808.912109,160.619141 C808.957683,160.427733 809.035156,160.245444 809.144531,160.072266 C809.253907,159.899088 809.38151,159.748699 809.527344,159.621094 C810.384119,158.96484 811.031248,157.998704 811.46875,156.722656 C811.906252,155.446608 812.125,154.289068 812.125,153.25 L812.125,148.875 C812.125,148.419269 811.94271,147.931643 811.578125,147.412109 C811.21354,146.892576 810.748701,146.418622 810.183594,145.990234 C809.618487,145.561847 808.957686,145.206382 808.201172,144.923828 C807.444658,144.641275 806.710941,144.5 806,144.5 Z M806,142.75 C806.929692,142.75 807.877599,142.93229 808.84375,143.296875 C809.809901,143.66146 810.657548,144.135414 811.386719,144.71875 C812.115889,145.302086 812.712888,145.962887 813.177734,146.701172 C813.64258,147.439457 813.875,148.164059 813.875,148.875 L813.875,153.25 C813.875,154.526048 813.606122,155.920565 813.068359,157.433594 C812.530596,158.946622 811.714849,160.131506 810.621094,160.988281 L818.25,164.625 L818.414062,164.679688 C818.541667,164.734375 818.687499,164.816406 818.851562,164.925781 C819.015626,165.035157 819.184244,165.158202 819.357422,165.294922 C819.5306,165.431641 819.676432,165.595702 819.794922,165.787109 C819.913412,165.978517 819.972656,166.165364 819.972656,166.347656 L819.972656,169 C819.972656,169.473961 819.804038,169.879556 819.466797,170.216797 C819.129556,170.554038 818.723961,170.722656 818.25,170.722656 L793.75,170.722656 C793.25781,170.722656 792.843101,170.554038 792.505859,170.216797 C792.168618,169.879556 792,169.473961 792,169 L792,166.347656 C792,166.183593 792.063801,166.00586 792.191406,165.814453 C792.319011,165.623046 792.460286,165.463542 792.615234,165.335938 C792.770183,165.208333 792.947916,165.08073 793.148438,164.953125 C793.348959,164.82552 793.485677,164.74349 793.558594,164.707031 C793.631511,164.670573 793.695312,164.643229 793.75,164.625 L801.433594,160.988281 C800.339838,160.095048 799.514977,158.878263 798.958984,157.337891 C798.402992,155.797518 798.125,154.434902 798.125,153.25 L798.125,148.875 C798.125,147.927079 798.507809,146.974614 799.273438,146.017578 C800.039066,145.060542 801.037103,144.276696 802.267578,143.666016 C803.498053,143.055335 804.742181,142.75 806,142.75 Z" transform="translate(-792 -142)"/>
</svg>
