{
  "infos": "Infos",
  "mix": "Mix",
  "gallery": "Galerie",
  "map": "Carte",
  "open-photo": "Ouvrir une image",
  "choose-premix": "Choisir un prémix",
  "whats-the-place": "Quel est l'endroit ?",
  "type-the-address": "Entrez l'adresse...",
  "comment": "Commentaire",
  "your-nickname": "Ton pseudo",
  "your-comment": "Ton commentaire",
  "object-division": "répartition des objets par critères :",
  "mixs": "mix(s)",
  "premix(es)": "prémix(es)",
  "premixes-description": "Choisissez un prémix pour créer votre mix à partir de celui-ci",
  "app-title": "Unlimited Cities",
  "app-subtitle": "Software is in the development phase",
  "app-short-description": "-",
  "app-long-description": "-",
  "GDPR": "<h3>À PROPOS DU LOGICIEL UNLIMITED CITIES®</h3> <p>Le logiciel libre Unlimited Cities® est en phase de développement. Il est un prototype fonctionnel destiné à explorer et valider les usages avec les différents acteurs des transformations urbaines (citoyens, professionnels, autorités). La version 1.0 et suivantes du logiciel sont en cours de planification et de développement avec le soutien de <a href='https://7billion-urbanists.org/' target='_blank'>l’ONG 7 Billion Urbanists</a> et <a href='https://freeit.world' target='_blank'>la fondation Free IT de genève</a>. <br/><br/><b>Site web officiel :</b> <a href='http://unlimitedcities.world' target='_blank'>http://unlimitedcities.world</a><br/> <b>Auteurs du dispositif et du logiciel Unlimited Cities :</b> Alain Renk, Nicolas Ancel HOST lab </p><h3>CRÉATION D’UNE BASE DE DONNÉES POUR ANALYSES</h3> <p>Cette base de données contient votre pseudo, l’horaire et le lieu où vous avez réalisé le mix, votre mix, votre commentaire et des tags. Cette basse de donnée est disponible en open data et est utile pour construire des analyses à partir de données ouvertes. La géolocalisation et la date permettent de faire le tri entre des mix développés sur le territoire de projets au moment d’un accompagnement avec des médiateurs ou des mix développés de façon autonome y compris depuis d’autres territoires. La base de données ne contiendra pas les pseudos qui seront anonymisés. Pour demander un jeu de données ouvertes anonymisées, c'est ici : contact@7-bu.org</p>",
  "form": "Formulaire",
  "extra-form": {},
  "metric-tag-division": "répartition des objets par métriques :",
  "download-csv-data": "Télécharger les données au format CSV"
}